{
    "/assets/admin/js/core/app.js": "/assets/admin/js/core/app.js?id=580f01a70807effa4638",
    "/assets/admin/css/laraspace.css": "/assets/admin/css/laraspace.css?id=96b01fc7cdf658db23c4",
    "/assets/front/css/front.css": "/assets/front/css/front.css?id=b14ea480bfa04b010f9c",
    "/assets/admin/js/core/plugins.js": "/assets/admin/js/core/plugins.js?id=140de1d6c5ff53d10ceb",
    "/assets/front/js/plugins.js": "/assets/front/js/plugins.js?id=a544fdcc0da4cb298e85"
}